Create a Grouped Dataset for Survival Analysis — surv_group_by • survminer
…
grouped.d # print
#> # A tibble: 3 x 2
#> # Groups:   rx [3]
#>   rx      data               
#> * <fct>   <named list>       
#> 1 Obs     <tibble [630 × 15]>
#> 2 Lev     <tibble [620 × 15]>
#> 3 Lev+5FU <tibble [608 × 15]>

grouped.d$data # Access to the data
#> $rx.Obs
#> # A tibble: 630 x 15
#>       id study   sex   age obstruct perfor adhere nodes status differ extent
#>    <dbl> <dbl> <dbl> <dbl>    <dbl>  <dbl>  <dbl> <dbl>  <dbl>  <dbl>  <dbl>
#>  1     3     1     0    71        0      0      1     7      1      2      2
#>  2     3     1     0    71        0      0      1     7      1      2      2
#>  3     5     1     1    69        0      0      0    22      1      2      3
#>  4     5     1     1    69        0      0      0    22      1      2      3
#>  5     8     1     1    54        0      0      0     1      0      2      3
#>  6     8     1     1    54        0      0      0     1      0      2      3
#>  7    13     1     1    64        0      0      0     1      1      2      3
#>  8    13     1     1    64        0      0      0     1      1      2      3
#>  9    15     1     1    46        1      0      0     4      0      2      3
#> 10    15     1     1    46        1      0      0     4      0      2      3
#> # … with 620 more rows, and 4 more variables: surg <dbl>, node4 <dbl>,
#> #   time <dbl>, etype <dbl>
#> 
#> $rx.Lev
#> # A tibble: 620 x 15
#>       id study   sex   age obstruct perfor adhere nodes status differ extent
#>    <dbl> <dbl> <dbl> <dbl>    <dbl>  <dbl>  <dbl> <dbl>  <dbl>  <dbl>  <dbl>
#>  1     7     1     1    77        0      0      0     5      1      2      3
#>  2     7     1     1    77        0      0      0     5      1      2      3
#>  3     9     1     1    46        0      0      1     2      0      2      3
#>  4     9     1     1    46        0      0      1     2      0      2      3
#>  5    11     1     0    47        0      0      1     1      0      2      3
#>  6    11     1     0    47        0      0      1     1      0      2      3
#>  7    14     1     1    68        1      0      0     3      1      2      3
#>  8    14     1     1    68        1      0      0     3      1      2      3
#>  9    17     1     1    62        1      0      1     6      1      2      3
#> 10    17     1     1    62        1      0      1     6      1      2      3
#> # … with 610 more rows, and 4 more variables: surg <dbl>, node4 <dbl>,
#> #   time <dbl>, etype <dbl>
#> 
#> $`rx.Lev+5FU`
#> # A tibble: 608 x 15
#>       id study   sex   age obstruct perfor adhere nodes status differ extent
#>    <dbl> <dbl> <dbl> <dbl>    <dbl>  <dbl>  <dbl> <dbl>  <dbl>  <dbl>  <dbl>
#>  1     1     1     1    43        0      0      0     5      1      2      3
#>  2     1     1     1    43        0      0      0     5      1      2      3
#>  3     2     1     1    63        0      0      0     1      0      2      3
#>  4     2     1     1    63        0      0      0     1      0      2      3
#>  5     4     1     0    66        1      0      0     6      1      2      3
#>  6     4     1     0    66        1      0      0     6      1      2      3
#>  7     6     1     0    57        0      0      0     9      1      2      3
#>  8     6     1     0    57        0      0      0     9      1      2      3
#>  9    10     1     0    68        0      0      0     1      0      2      3
#> 10    10     1     0    68        0      0      0     1      0      2      3
#> # … with 598 more rows, and 4 more variables: surg <dbl>, node4 <dbl>,
#> #   time <dbl>, etype <dbl>
…
